…
    ## # A tibble: 1 x 1
    ##   Promedio_Minutos
    ##              <dbl>
    ## 1             83.6

6. Realice una tabla de frecuencias con el tiempo de llamada.
=============================================================

``` r
d <- c %>% select(Call, duracion) %>% filter(Call == 1)
frecuencias <- d %>% group_by(duracion) %>% summarise(Frecuencia_LLamadas = sum(Call))
frecuencias
```

    ## # A tibble: 48 x 2
    ##    duracion Frecuencia_LLamadas
    ##       <dbl>               <dbl>
    ##  1        1                 211
    ##  2        2                 173
    ##  3        3                 195
    ##  4        4                 193
    ##  5        5                 184
    ##  6        6                 193
    ##  7        7                 196
    ##  8        8                 209
    ##  9        9                 165
    ## 10       10                 189
    ## # … with 38 more rows
…
